{
   "artists":{
      "href":"https://api.spotify.com/v1/search?offset=0&limit=5&query=Oru%C3%A3&type=artist",
      "limit":5,
      "next":"https://api.spotify.com/v1/search?offset=5&limit=5&query=Oru%C3%A3&type=artist",
      "offset":0,
      "previous":"None",
      "total":8,
      "items":[
         {
            "external_urls":{
               "spotify":"https://open.spotify.com/artist/2Wya1Moi5k4EX1dRpCf4Dm"
            },
            "href":"https://api.spotify.com/v1/artists/2Wya1Moi5k4EX1dRpCf4Dm",
            "id":"2Wya1Moi5k4EX1dRpCf4Dm",
            "images":[
               {
                  "url":"https://i.scdn.co/image/ab6761610000e5eb32c16ce847de69dcf64eac1f",
                  "height":640,
                  "width":640
               },
               {
                  "url":"https://i.scdn.co/image/ab6761610000517432c16ce847de69dcf64eac1f",
                  "height":320,
                  "width":320
               },
               {
                  "url":"https://i.scdn.co/image/ab6761610000f17832c16ce847de69dcf64eac1f",
                  "height":160,
                  "width":160
               }
            ],
            "name":"Oruã",
            "type":"artist",
            "uri":"spotify:artist:2Wya1Moi5k4EX1dRpCf4Dm"
         },
         {
            "external_urls":{
               "spotify":"https://open.spotify.com/artist/4yGgbQJMq9orWypwqtdzYT"
            },
            "href":"https://api.spotify.com/v1/artists/4yGgbQJMq9orWypwqtdzYT",
            "id":"4yGgbQJMq9orWypwqtdzYT",
            "images":[
               {
                  "url":"https://i.scdn.co/image/ab6761610000e5eb103e2b2ae3960b860ba4b1df",
                  "height":640,
                  "width":640
               },
               {
                  "url":"https://i.scdn.co/image/ab67616100005174103e2b2ae3960b860ba4b1df",
                  "height":320,
                  "width":320
               },
               {
                  "url":"https://i.scdn.co/image/ab6761610000f178103e2b2ae3960b860ba4b1df",
                  "height":160,
                  "width":160
               }
            ],
            "name":"Oruam",
            "type":"artist",
            "uri":"spotify:artist:4yGgbQJMq9orWypwqtdzYT"
         },
         {
            "external_urls":{
               "spotify":"https://open.spotify.com/artist/3rfM2cGqF6DB0kUyytMkXx"
            },
            "href":"https://api.spotify.com/v1/artists/3rfM2cGqF6DB0kUyytMkXx",
            "id":"3rfM2cGqF6DB0kUyytMkXx",
            "images":[
               {
                  "url":"https://i.scdn.co/image/ab6761610000e5eb90b1775a323db4e9ec05b0dc",
                  "height":640,
                  "width":640
               },
               {
                  "url":"https://i.scdn.co/image/ab6761610000517490b1775a323db4e9ec05b0dc",
                  "height":320,
                  "width":320
               },
               {
                  "url":"https://i.scdn.co/image/ab6761610000f17890b1775a323db4e9ec05b0dc",
                  "height":160,
                  "width":160
               }
            ],
            "name":"Orochi",
            "type":"artist",
            "uri":"spotify:artist:3rfM2cGqF6DB0kUyytMkXx"
         },
         {
            "external_urls":{
               "spotify":"https://open.spotify.com/artist/63u14QeBT468mDGtXs329W"
            },
            "href":"https://api.spotify.com/v1/artists/63u14QeBT468mDGtXs329W",
            "id":"63u14QeBT468mDGtXs329W",
            "images":[
               {
                  "url":"https://i.scdn.co/image/ab67616d0000b27361fb4632b75e33869e38dfa8",
                  "height":640,
                  "width":640
               },
               {
                  "url":"https://i.scdn.co/image/ab67616d00001e0261fb4632b75e33869e38dfa8",
                  "height":300,
                  "width":300
               },
               {
                  "url":"https://i.scdn.co/image/ab67616d000048514c3c128ef66a9b2560e00960",
                  "height":64,
                  "width":64
               }
            ],
            "name":"Oruam22",
            "type":"artist",
            "uri":"spotify:artist:63u14QeBT468mDGtXs329W"
         },
         {
            "external_urls":{
               "spotify":"https://open.spotify.com/artist/3vAaWhdBR38Q02ohXqaNHT"
            },
            "href":"https://api.spotify.com/v1/artists/3vAaWhdBR38Q02ohXqaNHT",
            "id":"3vAaWhdBR38Q02ohXqaNHT",
            "images":[
               {
                  "url":"https://i.scdn.co/image/ab6761610000e5eb8a05b6b10635b63ebc45ae54",
                  "height":640,
                  "width":640
               },
               {
                  "url":"https://i.scdn.co/image/ab676161000051748a05b6b10635b63ebc45ae54",
                  "height":320,
                  "width":320
               },
               {
                  "url":"https://i.scdn.co/image/ab6761610000f1788a05b6b10635b63ebc45ae54",
                  "height":160,
                  "width":160
               }
            ],
            "name":"The All-American Rejects",
            "type":"artist",
            "uri":"spotify:artist:3vAaWhdBR38Q02ohXqaNHT"
         }
      ]
   }
}